Introdução à Linguagem R – Washington S. da Silva
…
DicaDica importante:

Lembre-se: select() é para escolher colunas (variáveis) e filter() é para escolher linhas (observações)!

8.1.6 Exemplo: Salvando o resultado

NotaSeleção por Exclusão

Se quisermos remover apenas a variável continent, podemos usar a sintáxe abaixo e salvar o resultado em outro objeto:

variaveis_selecionadas <- select(gapminder, -continent)
variaveis_selecionadas

# A tibble: 1,704 × 5
   country      year lifeExp      pop gdpPercap
   <fct>       <int>   <dbl>    <int>     <dbl>
 1 Afghanistan  1952    28.8  8425333      779.
 2 Afghanistan  1957    30.3  9240934      821.
 3 Afghanistan  1962    32.0 10267083      853.
 4 Afghanistan  1967    34.0 11537966      836.
 5 Afghanistan  1972    36.1 13079460      740.
 6 Afghanistan  1977    38.4 14880372      786.
 7 Afghanistan  1982    39.9 12881816      978.
 8 Afghanistan  1987    40.8 13867957      852.
 9 Afghanistan  1992    41.7 16317921      649.
10 Afghanistan  1997    41.8 22227415      635.
# ℹ 1,694 more rows
…
NotaAplicando pivot_longer para organizar os dados

# Transformando os dados para o formato longo (tidy)
dados_vendas_longo <- dados_vendas_wide %>%
  pivot_longer(
    cols = Jan:Jun, # colunas que serão transformadas em valores de mes
    names_to = "mes", # nome da nova coluna
    values_to = "valor_vendas" # nome de outra nova coluna para as vendas
  )

# Visualizando o resultado
dados_vendas_longo

# A tibble: 36 × 4
   produto      categoria   mes   valor_vendas
   <chr>        <chr>       <chr>        <dbl>
 1 Notebook Pro Eletrônicos Jan          45000
 2 Notebook Pro Eletrônicos Fev          38000
 3 Notebook Pro Eletrônicos Mar          42000
 4 Notebook Pro Eletrônicos Abr          47000
 5 Notebook Pro Eletrônicos Mai          52000
 6 Notebook Pro Eletrônicos Jun          49000
 7 Smartphone X Eletrônicos Jan          38000
 8 Smartphone X Eletrônicos Fev          41000
 9 Smartphone X Eletrônicos Mar          40000
10 Smartphone X Eletrônicos Abr          39000
# ℹ 26 more rows
…
